^D:\PROJECTS\HIGH-LEVEL-PROGRAMMING\CT5037_ASSIGNMENT_ABBASKHAN\MD5_LOADER\SOURCE\MD5MODEL.CPP
D:\PROGRAMS\VS2019\VC\TOOLS\MSVC\14.16.27023\BIN\HOSTX86\X64\1033\CLUI.DLL
C:\WINDOWS\GLOBALIZATION\SORTING\SORTDEFAULT.NLS
C:\WINDOWS\SYSTEM32\TZRES.DLL
D:\PROJECTS\HIGH-LEVEL-PROGRAMMING\CT5037_ASSIGNMENT_ABBASKHAN\MD5_LOADER\INCLUDE\MD5MODEL.H
D:\PROJECTS\HIGH-LEVEL-PROGRAMMING\CT5037_ASSIGNMENT_ABBASKHAN\DEPS\GLM\GLM\GLM.HPP
D:\PROJECTS\HIGH-LEVEL-PROGRAMMING\CT5037_ASSIGNMENT_ABBASKHAN\DEPS\GLM\GLM\DETAIL\_FIXES.HPP
D:\PROGRAMS\VS2019\VC\TOOLS\MSVC\14.16.27023\INCLUDE\CMATH
D:\PROGRAMS\VS2019\VC\TOOLS\MSVC\14.16.27023\INCLUDE\YVALS.H
D:\PROGRAMS\VS2019\VC\TOOLS\MSVC\14.16.27023\INCLUDE\YVALS_CORE.H
D:\PROGRAMS\VS2019\VC\TOOLS\MSVC\14.16.27023\INCLUDE\XKEYCHECK.H
D:\PROGRAMS\VS2019\VC\TOOLS\MSVC\14.16.27023\INCLUDE\CRTDEFS.H
D:\PROGRAMS\VS2019\VC\TOOLS\MSVC\14.16.27023\INCLUDE\VCRUNTIME.H
D:\PROGRAMS\VS2019\VC\TOOLS\MSVC\14.16.27023\INCLUDE\SAL.H
D:\PROGRAMS\VS2019\VC\TOOLS\MSVC\14.16.27023\INCLUDE\CONCURRENCYSAL.H
D:\PROGRAMS\VS2019\VC\TOOLS\MSVC\14.16.27023\INCLUDE\VADEFS.H
C:\PROGRAM FILES (X86)\WINDOWS KITS\10\INCLUDE\10.0.18362.0\UCRT\CORECRT.H
C:\PROGRAM FILES (X86)\WINDOWS KITS\10\INCLUDE\10.0.18362.0\UCRT\CRTDBG.H
D:\PROGRAMS\VS2019\VC\TOOLS\MSVC\14.16.27023\INCLUDE\VCRUNTIME_NEW_DEBUG.H
D:\PROGRAMS\VS2019\VC\TOOLS\MSVC\14.16.27023\INCLUDE\VCRUNTIME_NEW.H
D:\PROGRAMS\VS2019\VC\TOOLS\MSVC\14.16.27023\INCLUDE\USE_ANSI.H
D:\PROGRAMS\VS2019\VC\TOOLS\MSVC\14.16.27023\INCLUDE\CSTDLIB
C:\PROGRAM FILES (X86)\WINDOWS KITS\10\INCLUDE\10.0.18362.0\UCRT\STDLIB.H
C:\PROGRAM FILES (X86)\WINDOWS KITS\10\INCLUDE\10.0.18362.0\UCRT\CORECRT_MALLOC.H
C:\PROGRAM FILES (X86)\WINDOWS KITS\10\INCLUDE\10.0.18362.0\UCRT\CORECRT_SEARCH.H
C:\PROGRAM FILES (X86)\WINDOWS KITS\10\INCLUDE\10.0.18362.0\UCRT\STDDEF.H
C:\PROGRAM FILES (X86)\WINDOWS KITS\10\INCLUDE\10.0.18362.0\UCRT\CORECRT_WSTDLIB.H
D:\PROGRAMS\VS2019\VC\TOOLS\MSVC\14.16.27023\INCLUDE\LIMITS.H
C:\PROGRAM FILES (X86)\WINDOWS KITS\10\INCLUDE\10.0.18362.0\UCRT\MATH.H
C:\PROGRAM FILES (X86)\WINDOWS KITS\10\INCLUDE\10.0.18362.0\UCRT\CORECRT_MATH.H
D:\PROGRAMS\VS2019\VC\TOOLS\MSVC\14.16.27023\INCLUDE\XTGMATH.H
D:\PROGRAMS\VS2019\VC\TOOLS\MSVC\14.16.27023\INCLUDE\XTR1COMMON
D:\PROGRAMS\VS2019\VC\TOOLS\MSVC\14.16.27023\INCLUDE\CLIMITS
D:\PROGRAMS\VS2019\VC\TOOLS\MSVC\14.16.27023\INCLUDE\CFLOAT
C:\PROGRAM FILES (X86)\WINDOWS KITS\10\INCLUDE\10.0.18362.0\UCRT\FLOAT.H
D:\PROGRAMS\VS2019\VC\TOOLS\MSVC\14.16.27023\INCLUDE\LIMITS
D:\PROGRAMS\VS2019\VC\TOOLS\MSVC\14.16.27023\INCLUDE\YMATH.H
D:\PROGRAMS\VS2019\VC\TOOLS\MSVC\14.16.27023\INCLUDE\CWCHAR
C:\PROGRAM FILES (X86)\WINDOWS KITS\10\INCLUDE\10.0.18362.0\UCRT\WCHAR.H
C:\PROGRAM FILES (X86)\WINDOWS KITS\10\INCLUDE\10.0.18362.0\UCRT\CORECRT_MEMCPY_S.H
C:\PROGRAM FILES (X86)\WINDOWS KITS\10\INCLUDE\10.0.18362.0\UCRT\ERRNO.H
D:\PROGRAMS\VS2019\VC\TOOLS\MSVC\14.16.27023\INCLUDE\VCRUNTIME_STRING.H
C:\PROGRAM FILES (X86)\WINDOWS KITS\10\INCLUDE\10.0.18362.0\UCRT\CORECRT_WCONIO.H
C:\PROGRAM FILES (X86)\WINDOWS KITS\10\INCLUDE\10.0.18362.0\UCRT\CORECRT_STDIO_CONFIG.H
C:\PROGRAM FILES (X86)\WINDOWS KITS\10\INCLUDE\10.0.18362.0\UCRT\CORECRT_WCTYPE.H
C:\PROGRAM FILES (X86)\WINDOWS KITS\10\INCLUDE\10.0.18362.0\UCRT\CORECRT_WDIRECT.H
C:\PROGRAM FILES (X86)\WINDOWS KITS\10\INCLUDE\10.0.18362.0\UCRT\CORECRT_WIO.H
C:\PROGRAM FILES (X86)\WINDOWS KITS\10\INCLUDE\10.0.18362.0\UCRT\CORECRT_SHARE.H
C:\PROGRAM FILES (X86)\WINDOWS KITS\10\INCLUDE\10.0.18362.0\UCRT\CORECRT_WPROCESS.H
C:\PROGRAM FILES (X86)\WINDOWS KITS\10\INCLUDE\10.0.18362.0\UCRT\CORECRT_WSTDIO.H
C:\PROGRAM FILES (X86)\WINDOWS KITS\10\INCLUDE\10.0.18362.0\UCRT\CORECRT_WSTRING.H
C:\PROGRAM FILES (X86)\WINDOWS KITS\10\INCLUDE\10.0.18362.0\UCRT\CORECRT_WTIME.H
C:\PROGRAM FILES (X86)\WINDOWS KITS\10\INCLUDE\10.0.18362.0\UCRT\SYS\STAT.H
C:\PROGRAM FILES (X86)\WINDOWS KITS\10\INCLUDE\10.0.18362.0\UCRT\SYS\TYPES.H
D:\PROGRAMS\VS2019\VC\TOOLS\MSVC\14.16.27023\INCLUDE\XSTDDEF
D:\PROGRAMS\VS2019\VC\TOOLS\MSVC\14.16.27023\INCLUDE\CSTDDEF
D:\PROGRAMS\VS2019\VC\TOOLS\MSVC\14.16.27023\INCLUDE\INITIALIZER_LIST
D:\PROGRAMS\VS2019\VC\TOOLS\MSVC\14.16.27023\INCLUDE\CASSERT
C:\PROGRAM FILES (X86)\WINDOWS KITS\10\INCLUDE\10.0.18362.0\UCRT\ASSERT.H
D:\PROJECTS\HIGH-LEVEL-PROGRAMMING\CT5037_ASSIGNMENT_ABBASKHAN\DEPS\GLM\GLM\FWD.HPP
D:\PROJECTS\HIGH-LEVEL-PROGRAMMING\CT5037_ASSIGNMENT_ABBASKHAN\DEPS\GLM\GLM\DETAIL\TYPE_INT.HPP
D:\PROJECTS\HIGH-LEVEL-PROGRAMMING\CT5037_ASSIGNMENT_ABBASKHAN\DEPS\GLM\GLM\DETAIL\SETUP.HPP
D:\PROJECTS\HIGH-LEVEL-PROGRAMMING\CT5037_ASSIGNMENT_ABBASKHAN\DEPS\GLM\GLM\SIMD\PLATFORM.H
D:\PROGRAMS\VS2019\VC\TOOLS\MSVC\14.16.27023\INCLUDE\TYPE_TRAITS
D:\PROGRAMS\VS2019\VC\TOOLS\MSVC\14.16.27023\INCLUDE\CSTDINT
D:\PROGRAMS\VS2019\VC\TOOLS\MSVC\14.16.27023\INCLUDE\STDINT.H
D:\PROJECTS\HIGH-LEVEL-PROGRAMMING\CT5037_ASSIGNMENT_ABBASKHAN\DEPS\GLM\GLM\DETAIL\TYPE_FLOAT.HPP
D:\PROJECTS\HIGH-LEVEL-PROGRAMMING\CT5037_ASSIGNMENT_ABBASKHAN\DEPS\GLM\GLM\DETAIL\TYPE_VEC.HPP
D:\PROJECTS\HIGH-LEVEL-PROGRAMMING\CT5037_ASSIGNMENT_ABBASKHAN\DEPS\GLM\GLM\DETAIL\PRECISION.HPP
D:\PROJECTS\HIGH-LEVEL-PROGRAMMING\CT5037_ASSIGNMENT_ABBASKHAN\DEPS\GLM\GLM\DETAIL\TYPE_MAT.HPP
D:\PROJECTS\HIGH-LEVEL-PROGRAMMING\CT5037_ASSIGNMENT_ABBASKHAN\DEPS\GLM\GLM\VEC2.HPP
D:\PROJECTS\HIGH-LEVEL-PROGRAMMING\CT5037_ASSIGNMENT_ABBASKHAN\DEPS\GLM\GLM\DETAIL\TYPE_VEC2.HPP
D:\PROJECTS\HIGH-LEVEL-PROGRAMMING\CT5037_ASSIGNMENT_ABBASKHAN\DEPS\GLM\GLM\DETAIL\_SWIZZLE.HPP
D:\PROJECTS\HIGH-LEVEL-PROGRAMMING\CT5037_ASSIGNMENT_ABBASKHAN\DEPS\GLM\GLM\DETAIL\TYPE_VEC2.INL
D:\PROJECTS\HIGH-LEVEL-PROGRAMMING\CT5037_ASSIGNMENT_ABBASKHAN\DEPS\GLM\GLM\VEC3.HPP
D:\PROJECTS\HIGH-LEVEL-PROGRAMMING\CT5037_ASSIGNMENT_ABBASKHAN\DEPS\GLM\GLM\DETAIL\TYPE_VEC3.HPP
D:\PROJECTS\HIGH-LEVEL-PROGRAMMING\CT5037_ASSIGNMENT_ABBASKHAN\DEPS\GLM\GLM\DETAIL\TYPE_VEC3.INL
D:\PROJECTS\HIGH-LEVEL-PROGRAMMING\CT5037_ASSIGNMENT_ABBASKHAN\DEPS\GLM\GLM\VEC4.HPP
D:\PROJECTS\HIGH-LEVEL-PROGRAMMING\CT5037_ASSIGNMENT_ABBASKHAN\DEPS\GLM\GLM\DETAIL\TYPE_VEC4.HPP
D:\PROJECTS\HIGH-LEVEL-PROGRAMMING\CT5037_ASSIGNMENT_ABBASKHAN\DEPS\GLM\GLM\DETAIL\TYPE_VEC4.INL
D:\PROJECTS\HIGH-LEVEL-PROGRAMMING\CT5037_ASSIGNMENT_ABBASKHAN\DEPS\GLM\GLM\MAT2X2.HPP
D:\PROJECTS\HIGH-LEVEL-PROGRAMMING\CT5037_ASSIGNMENT_ABBASKHAN\DEPS\GLM\GLM\DETAIL\TYPE_MAT2X2.HPP
D:\PROJECTS\HIGH-LEVEL-PROGRAMMING\CT5037_ASSIGNMENT_ABBASKHAN\DEPS\GLM\GLM\DETAIL\TYPE_MAT2X2.INL
D:\PROJECTS\HIGH-LEVEL-PROGRAMMING\CT5037_ASSIGNMENT_ABBASKHAN\DEPS\GLM\GLM\DETAIL\FUNC_MATRIX.HPP
D:\PROJECTS\HIGH-LEVEL-PROGRAMMING\CT5037_ASSIGNMENT_ABBASKHAN\DEPS\GLM\GLM\MAT2X3.HPP
D:\PROJECTS\HIGH-LEVEL-PROGRAMMING\CT5037_ASSIGNMENT_ABBASKHAN\DEPS\GLM\GLM\DETAIL\TYPE_MAT2X3.HPP
D:\PROJECTS\HIGH-LEVEL-PROGRAMMING\CT5037_ASSIGNMENT_ABBASKHAN\DEPS\GLM\GLM\DETAIL\TYPE_MAT2X3.INL
D:\PROJECTS\HIGH-LEVEL-PROGRAMMING\CT5037_ASSIGNMENT_ABBASKHAN\DEPS\GLM\GLM\MAT2X4.HPP
D:\PROJECTS\HIGH-LEVEL-PROGRAMMING\CT5037_ASSIGNMENT_ABBASKHAN\DEPS\GLM\GLM\DETAIL\TYPE_MAT2X4.HPP
D:\PROJECTS\HIGH-LEVEL-PROGRAMMING\CT5037_ASSIGNMENT_ABBASKHAN\DEPS\GLM\GLM\DETAIL\TYPE_MAT2X4.INL
D:\PROJECTS\HIGH-LEVEL-PROGRAMMING\CT5037_ASSIGNMENT_ABBASKHAN\DEPS\GLM\GLM\MAT3X2.HPP
D:\PROJECTS\HIGH-LEVEL-PROGRAMMING\CT5037_ASSIGNMENT_ABBASKHAN\DEPS\GLM\GLM\DETAIL\TYPE_MAT3X2.HPP
D:\PROJECTS\HIGH-LEVEL-PROGRAMMING\CT5037_ASSIGNMENT_ABBASKHAN\DEPS\GLM\GLM\DETAIL\TYPE_MAT3X2.INL
D:\PROJECTS\HIGH-LEVEL-PROGRAMMING\CT5037_ASSIGNMENT_ABBASKHAN\DEPS\GLM\GLM\MAT3X3.HPP
D:\PROJECTS\HIGH-LEVEL-PROGRAMMING\CT5037_ASSIGNMENT_ABBASKHAN\DEPS\GLM\GLM\DETAIL\TYPE_MAT3X3.HPP
D:\PROJECTS\HIGH-LEVEL-PROGRAMMING\CT5037_ASSIGNMENT_ABBASKHAN\DEPS\GLM\GLM\DETAIL\TYPE_MAT3X3.INL
D:\PROJECTS\HIGH-LEVEL-PROGRAMMING\CT5037_ASSIGNMENT_ABBASKHAN\DEPS\GLM\GLM\MAT3X4.HPP
D:\PROJECTS\HIGH-LEVEL-PROGRAMMING\CT5037_ASSIGNMENT_ABBASKHAN\DEPS\GLM\GLM\DETAIL\TYPE_MAT3X4.HPP
D:\PROJECTS\HIGH-LEVEL-PROGRAMMING\CT5037_ASSIGNMENT_ABBASKHAN\DEPS\GLM\GLM\DETAIL\TYPE_MAT3X4.INL
D:\PROJECTS\HIGH-LEVEL-PROGRAMMING\CT5037_ASSIGNMENT_ABBASKHAN\DEPS\GLM\GLM\MAT4X2.HPP
D:\PROJECTS\HIGH-LEVEL-PROGRAMMING\CT5037_ASSIGNMENT_ABBASKHAN\DEPS\GLM\GLM\DETAIL\TYPE_MAT4X2.HPP
D:\PROJECTS\HIGH-LEVEL-PROGRAMMING\CT5037_ASSIGNMENT_ABBASKHAN\DEPS\GLM\GLM\DETAIL\TYPE_MAT4X2.INL
D:\PROJECTS\HIGH-LEVEL-PROGRAMMING\CT5037_ASSIGNMENT_ABBASKHAN\DEPS\GLM\GLM\MAT4X3.HPP
D:\PROJECTS\HIGH-LEVEL-PROGRAMMING\CT5037_ASSIGNMENT_ABBASKHAN\DEPS\GLM\GLM\DETAIL\TYPE_MAT4X3.HPP
D:\PROJECTS\HIGH-LEVEL-PROGRAMMING\CT5037_ASSIGNMENT_ABBASKHAN\DEPS\GLM\GLM\DETAIL\TYPE_MAT4X3.INL
D:\PROJECTS\HIGH-LEVEL-PROGRAMMING\CT5037_ASSIGNMENT_ABBASKHAN\DEPS\GLM\GLM\MAT4X4.HPP
D:\PROJECTS\HIGH-LEVEL-PROGRAMMING\CT5037_ASSIGNMENT_ABBASKHAN\DEPS\GLM\GLM\DETAIL\TYPE_MAT4X4.HPP
D:\PROJECTS\HIGH-LEVEL-PROGRAMMING\CT5037_ASSIGNMENT_ABBASKHAN\DEPS\GLM\GLM\DETAIL\TYPE_MAT4X4.INL
D:\PROJECTS\HIGH-LEVEL-PROGRAMMING\CT5037_ASSIGNMENT_ABBASKHAN\DEPS\GLM\GLM\DETAIL\FUNC_MATRIX.INL
D:\PROJECTS\HIGH-LEVEL-PROGRAMMING\CT5037_ASSIGNMENT_ABBASKHAN\DEPS\GLM\GLM\GEOMETRIC.HPP
D:\PROJECTS\HIGH-LEVEL-PROGRAMMING\CT5037_ASSIGNMENT_ABBASKHAN\DEPS\GLM\GLM\DETAIL\FUNC_GEOMETRIC.HPP
D:\PROJECTS\HIGH-LEVEL-PROGRAMMING\CT5037_ASSIGNMENT_ABBASKHAN\DEPS\GLM\GLM\DETAIL\FUNC_GEOMETRIC.INL
D:\PROJECTS\HIGH-LEVEL-PROGRAMMING\CT5037_ASSIGNMENT_ABBASKHAN\DEPS\GLM\GLM\DETAIL\FUNC_EXPONENTIAL.HPP
D:\PROJECTS\HIGH-LEVEL-PROGRAMMING\CT5037_ASSIGNMENT_ABBASKHAN\DEPS\GLM\GLM\DETAIL\TYPE_VEC1.HPP
D:\PROJECTS\HIGH-LEVEL-PROGRAMMING\CT5037_ASSIGNMENT_ABBASKHAN\DEPS\GLM\GLM\DETAIL\TYPE_VEC1.INL
D:\PROJECTS\HIGH-LEVEL-PROGRAMMING\CT5037_ASSIGNMENT_ABBASKHAN\DEPS\GLM\GLM\DETAIL\FUNC_EXPONENTIAL.INL
D:\PROJECTS\HIGH-LEVEL-PROGRAMMING\CT5037_ASSIGNMENT_ABBASKHAN\DEPS\GLM\GLM\DETAIL\FUNC_VECTOR_RELATIONAL.HPP
D:\PROJECTS\HIGH-LEVEL-PROGRAMMING\CT5037_ASSIGNMENT_ABBASKHAN\DEPS\GLM\GLM\DETAIL\FUNC_VECTOR_RELATIONAL.INL
D:\PROJECTS\HIGH-LEVEL-PROGRAMMING\CT5037_ASSIGNMENT_ABBASKHAN\DEPS\GLM\GLM\DETAIL\_VECTORIZE.HPP
D:\PROJECTS\HIGH-LEVEL-PROGRAMMING\CT5037_ASSIGNMENT_ABBASKHAN\DEPS\GLM\GLM\DETAIL\FUNC_COMMON.HPP
D:\PROJECTS\HIGH-LEVEL-PROGRAMMING\CT5037_ASSIGNMENT_ABBASKHAN\DEPS\GLM\GLM\DETAIL\FUNC_COMMON.INL
D:\PROJECTS\HIGH-LEVEL-PROGRAMMING\CT5037_ASSIGNMENT_ABBASKHAN\DEPS\GLM\GLM\TRIGONOMETRIC.HPP
D:\PROJECTS\HIGH-LEVEL-PROGRAMMING\CT5037_ASSIGNMENT_ABBASKHAN\DEPS\GLM\GLM\DETAIL\FUNC_TRIGONOMETRIC.HPP
D:\PROJECTS\HIGH-LEVEL-PROGRAMMING\CT5037_ASSIGNMENT_ABBASKHAN\DEPS\GLM\GLM\DETAIL\FUNC_TRIGONOMETRIC.INL
D:\PROJECTS\HIGH-LEVEL-PROGRAMMING\CT5037_ASSIGNMENT_ABBASKHAN\DEPS\GLM\GLM\EXPONENTIAL.HPP
D:\PROJECTS\HIGH-LEVEL-PROGRAMMING\CT5037_ASSIGNMENT_ABBASKHAN\DEPS\GLM\GLM\COMMON.HPP
D:\PROJECTS\HIGH-LEVEL-PROGRAMMING\CT5037_ASSIGNMENT_ABBASKHAN\DEPS\GLM\GLM\PACKING.HPP
D:\PROJECTS\HIGH-LEVEL-PROGRAMMING\CT5037_ASSIGNMENT_ABBASKHAN\DEPS\GLM\GLM\DETAIL\FUNC_PACKING.HPP
D:\PROJECTS\HIGH-LEVEL-PROGRAMMING\CT5037_ASSIGNMENT_ABBASKHAN\DEPS\GLM\GLM\DETAIL\FUNC_PACKING.INL
D:\PROJECTS\HIGH-LEVEL-PROGRAMMING\CT5037_ASSIGNMENT_ABBASKHAN\DEPS\GLM\GLM\DETAIL\TYPE_HALF.HPP
D:\PROJECTS\HIGH-LEVEL-PROGRAMMING\CT5037_ASSIGNMENT_ABBASKHAN\DEPS\GLM\GLM\DETAIL\TYPE_HALF.INL
D:\PROJECTS\HIGH-LEVEL-PROGRAMMING\CT5037_ASSIGNMENT_ABBASKHAN\DEPS\GLM\GLM\MATRIX.HPP
D:\PROJECTS\HIGH-LEVEL-PROGRAMMING\CT5037_ASSIGNMENT_ABBASKHAN\DEPS\GLM\GLM\VECTOR_RELATIONAL.HPP
D:\PROJECTS\HIGH-LEVEL-PROGRAMMING\CT5037_ASSIGNMENT_ABBASKHAN\DEPS\GLM\GLM\INTEGER.HPP
D:\PROJECTS\HIGH-LEVEL-PROGRAMMING\CT5037_ASSIGNMENT_ABBASKHAN\DEPS\GLM\GLM\DETAIL\FUNC_INTEGER.HPP
D:\PROJECTS\HIGH-LEVEL-PROGRAMMING\CT5037_ASSIGNMENT_ABBASKHAN\DEPS\GLM\GLM\DETAIL\FUNC_INTEGER.INL
D:\PROJECTS\HIGH-LEVEL-PROGRAMMING\CT5037_ASSIGNMENT_ABBASKHAN\DEPS\GLM\GLM\GTC\QUATERNION.HPP
D:\PROJECTS\HIGH-LEVEL-PROGRAMMING\CT5037_ASSIGNMENT_ABBASKHAN\DEPS\GLM\GLM\GTC\CONSTANTS.HPP
D:\PROJECTS\HIGH-LEVEL-PROGRAMMING\CT5037_ASSIGNMENT_ABBASKHAN\DEPS\GLM\GLM\GTC\CONSTANTS.INL
D:\PROJECTS\HIGH-LEVEL-PROGRAMMING\CT5037_ASSIGNMENT_ABBASKHAN\DEPS\GLM\GLM\GTC\QUATERNION.INL
D:\PROJECTS\HIGH-LEVEL-PROGRAMMING\CT5037_ASSIGNMENT_ABBASKHAN\DEPS\GLM\GLM\GTC\EPSILON.HPP
D:\PROJECTS\HIGH-LEVEL-PROGRAMMING\CT5037_ASSIGNMENT_ABBASKHAN\DEPS\GLM\GLM\GTC\EPSILON.INL
D:\PROGRAMS\VS2019\VC\TOOLS\MSVC\14.16.27023\INCLUDE\MAP
D:\PROGRAMS\VS2019\VC\TOOLS\MSVC\14.16.27023\INCLUDE\TUPLE
D:\PROGRAMS\VS2019\VC\TOOLS\MSVC\14.16.27023\INCLUDE\NEW
D:\PROGRAMS\VS2019\VC\TOOLS\MSVC\14.16.27023\INCLUDE\EXCEPTION
C:\PROGRAM FILES (X86)\WINDOWS KITS\10\INCLUDE\10.0.18362.0\UCRT\MALLOC.H
D:\PROGRAMS\VS2019\VC\TOOLS\MSVC\14.16.27023\INCLUDE\VCRUNTIME_EXCEPTION.H
D:\PROGRAMS\VS2019\VC\TOOLS\MSVC\14.16.27023\INCLUDE\EH.H
C:\PROGRAM FILES (X86)\WINDOWS KITS\10\INCLUDE\10.0.18362.0\UCRT\CORECRT_TERMINATE.H
D:\PROGRAMS\VS2019\VC\TOOLS\MSVC\14.16.27023\INCLUDE\XUTILITY
D:\PROGRAMS\VS2019\VC\TOOLS\MSVC\14.16.27023\INCLUDE\UTILITY
D:\PROGRAMS\VS2019\VC\TOOLS\MSVC\14.16.27023\INCLUDE\IOSFWD
D:\PROGRAMS\VS2019\VC\TOOLS\MSVC\14.16.27023\INCLUDE\CSTDIO
C:\PROGRAM FILES (X86)\WINDOWS KITS\10\INCLUDE\10.0.18362.0\UCRT\STDIO.H
D:\PROGRAMS\VS2019\VC\TOOLS\MSVC\14.16.27023\INCLUDE\CSTRING
C:\PROGRAM FILES (X86)\WINDOWS KITS\10\INCLUDE\10.0.18362.0\UCRT\STRING.H
C:\PROGRAM FILES (X86)\WINDOWS KITS\10\INCLUDE\10.0.18362.0\UCRT\CORECRT_MEMORY.H
D:\PROGRAMS\VS2019\VC\TOOLS\MSVC\14.16.27023\INCLUDE\XTREE
D:\PROGRAMS\VS2019\VC\TOOLS\MSVC\14.16.27023\INCLUDE\XMEMORY
D:\PROGRAMS\VS2019\VC\TOOLS\MSVC\14.16.27023\INCLUDE\XMEMORY0
D:\PROGRAMS\VS2019\VC\TOOLS\MSVC\14.16.27023\INCLUDE\XATOMIC0.H
D:\PROGRAMS\VS2019\VC\TOOLS\MSVC\14.16.27023\INCLUDE\INTRIN0.H
D:\PROGRAMS\VS2019\VC\TOOLS\MSVC\14.16.27023\INCLUDE\STDEXCEPT
D:\PROGRAMS\VS2019\VC\TOOLS\MSVC\14.16.27023\INCLUDE\XSTRING
D:\PROGRAMS\VS2019\VC\TOOLS\MSVC\14.16.27023\INCLUDE\VECTOR
D:\PROGRAMS\VS2019\VC\TOOLS\MSVC\14.16.27023\INCLUDE\STRING
D:\PROGRAMS\VS2019\VC\TOOLS\MSVC\14.16.27023\INCLUDE\ISTREAM
D:\PROGRAMS\VS2019\VC\TOOLS\MSVC\14.16.27023\INCLUDE\OSTREAM
D:\PROGRAMS\VS2019\VC\TOOLS\MSVC\14.16.27023\INCLUDE\IOS
D:\PROGRAMS\VS2019\VC\TOOLS\MSVC\14.16.27023\INCLUDE\XLOCNUM
D:\PROGRAMS\VS2019\VC\TOOLS\MSVC\14.16.27023\INCLUDE\STREAMBUF
D:\PROGRAMS\VS2019\VC\TOOLS\MSVC\14.16.27023\INCLUDE\XIOSBASE
D:\PROGRAMS\VS2019\VC\TOOLS\MSVC\14.16.27023\INCLUDE\XLOCALE
D:\PROGRAMS\VS2019\VC\TOOLS\MSVC\14.16.27023\INCLUDE\TYPEINFO
D:\PROGRAMS\VS2019\VC\TOOLS\MSVC\14.16.27023\INCLUDE\VCRUNTIME_TYPEINFO.H
D:\PROGRAMS\VS2019\VC\TOOLS\MSVC\14.16.27023\INCLUDE\XLOCINFO
D:\PROGRAMS\VS2019\VC\TOOLS\MSVC\14.16.27023\INCLUDE\XLOCINFO.H
C:\PROGRAM FILES (X86)\WINDOWS KITS\10\INCLUDE\10.0.18362.0\UCRT\CTYPE.H
C:\PROGRAM FILES (X86)\WINDOWS KITS\10\INCLUDE\10.0.18362.0\UCRT\LOCALE.H
D:\PROGRAMS\VS2019\VC\TOOLS\MSVC\14.16.27023\INCLUDE\MEMORY
D:\PROGRAMS\VS2019\VC\TOOLS\MSVC\14.16.27023\INCLUDE\XFACET
D:\PROGRAMS\VS2019\VC\TOOLS\MSVC\14.16.27023\INCLUDE\SYSTEM_ERROR
D:\PROGRAMS\VS2019\VC\TOOLS\MSVC\14.16.27023\INCLUDE\CERRNO
D:\PROGRAMS\VS2019\VC\TOOLS\MSVC\14.16.27023\INCLUDE\XCALL_ONCE.H
D:\PROGRAMS\VS2019\VC\TOOLS\MSVC\14.16.27023\INCLUDE\XERRC.H
C:\PROGRAM FILES (X86)\WINDOWS KITS\10\INCLUDE\10.0.18362.0\UCRT\SHARE.H
D:\PROGRAMS\VS2019\VC\TOOLS\MSVC\14.16.27023\INCLUDE\XSTRING_INSERT.H
D:\PROJECTS\HIGH-LEVEL-PROGRAMMING\CT5037_ASSIGNMENT_ABBASKHAN\DEPS\GLM\GLM\GTC\MATRIX_TRANSFORM.HPP
D:\PROJECTS\HIGH-LEVEL-PROGRAMMING\CT5037_ASSIGNMENT_ABBASKHAN\DEPS\GLM\GLM\GTC\MATRIX_TRANSFORM.INL
D:\PROJECTS\HIGH-LEVEL-PROGRAMMING\CT5037_ASSIGNMENT_ABBASKHAN\DEPS\GLM\GLM\GTC\MATRIX_INVERSE.HPP
D:\PROJECTS\HIGH-LEVEL-PROGRAMMING\CT5037_ASSIGNMENT_ABBASKHAN\DEPS\GLM\GLM\GTC\MATRIX_INVERSE.INL
D:\PROJECTS\HIGH-LEVEL-PROGRAMMING\CT5037_ASSIGNMENT_ABBASKHAN\DEPS\GLM\GLM\GTX\TRANSFORM.HPP
D:\PROJECTS\HIGH-LEVEL-PROGRAMMING\CT5037_ASSIGNMENT_ABBASKHAN\DEPS\GLM\GLM\GTX\TRANSFORM.INL
D:\PROJECTS\HIGH-LEVEL-PROGRAMMING\CT5037_ASSIGNMENT_ABBASKHAN\DEPS\GLM\GLM\GTX\NORM.HPP
D:\PROJECTS\HIGH-LEVEL-PROGRAMMING\CT5037_ASSIGNMENT_ABBASKHAN\DEPS\GLM\GLM\GTX\QUATERNION.HPP
D:\PROJECTS\HIGH-LEVEL-PROGRAMMING\CT5037_ASSIGNMENT_ABBASKHAN\DEPS\GLM\GLM\GTX\QUATERNION.INL
D:\PROJECTS\HIGH-LEVEL-PROGRAMMING\CT5037_ASSIGNMENT_ABBASKHAN\DEPS\GLM\GLM\GTX\NORM.INL
D:\PROJECTS\HIGH-LEVEL-PROGRAMMING\CT5037_ASSIGNMENT_ABBASKHAN\DEPS\SOIL\INCLUDE\SOIL.H
D:\PROGRAMS\VS2019\VC\TOOLS\MSVC\14.16.27023\INCLUDE\IOSTREAM
D:\PROGRAMS\VS2019\VC\TOOLS\MSVC\14.16.27023\INCLUDE\FSTREAM
D:\PROGRAMS\VS2019\VC\TOOLS\MSVC\14.16.27023\INCLUDE\ALGORITHM
