^D:\PROJECTS\HIGH-LEVEL-PROGRAMMING\CT5037_ASSIGNMENT_ABBASKHAN\MD5_LOADER\OBJ\MD5MODEL.OBJ
D:\PROJECTS\HIGH-LEVEL-PROGRAMMING\CT5037_ASSIGNMENT_ABBASKHAN\MD5_LOADER\OBJ\MD5MODEL.OBJ
C:\WINDOWS\SYSTEM32\TZRES.DLL
